launch_status failed=0 1697728475000000000
launch_status broken=0 1697728475000000000
launch_status passed=4 1697728475000000000
launch_status skipped=0 1697728475000000000
launch_status unknown=0 1697728475000000000
launch_time duration=2964 1697728475000000000
launch_time min_duration=77 1697728475000000000
launch_time max_duration=2415 1697728475000000000
launch_time sum_duration=2959 1697728475000000000
launch_retries retries=0 1697728475000000000
launch_retries run=4 1697728475000000000
